identifikasi db klinik
…
# Distribusi tipe data
tipe_kolom <- tibble(
  kolom = names(df),
  tipe  = map_chr(df, ~ paste(class(.x), collapse = ", "))
)

tipe_kolom %>% arrange(tipe)

# A tibble: 30 × 2
   kolom                      tipe     
   <chr>                      <chr>    
 1 visit_id                   character
 2 visit_datetime             character
 3 clinic_name                character
 4 clinic_city                character
 5 clinic_province            character
 6 clinic_open_date           character
 7 head_doctor_name_of_clinic character
 8 doctor_name                character
 9 doctor_gender              character
10 doctor_specialty           character
# ℹ 20 more rows
…
